2012-12-05,0.0132
2013-01-08,
2013-03-15,0.0394
2013-06-28,
2013-08-23,0.0194
2013-09-17,
2013-10-26,
2014-02-26,0.0181
2014-03-25,0.0192
2014-05-13,0.0289
2014-06-25,0.0163
2014-08-12,
2014-09-28,
2015-03-21,
2015-05-15,
2015-06-16,0.0139
2015-07-27,
2015-09-13,
2015-10-29,
2016-03-05,0.0197
2016-04-28,
2016-06-04,
2016-07-24,
2016-09-18,
2016-11-07,
2017-03-14,0.0294
2017-04-23,0.0472
2017-05-26,0.0533
2017-07-03,
2017-08-15,
2017-10-09,
2018-02-11,0.0135
2018-03-15,0.0165
2018-04-24,0.0435
2018-06-07,0.0485
2018-10-25,
2018-12-19,0.0208
2019-02-15,0.0335
