,Time_Step,FI,Smooth_FI
0,2016-09-18,5.35424868893541,5.963382357932552
1,2017-03-15,8.0,5.963382357932552
2,2018-02-11,4.535898384862245,5.963382357932552
3,2018-08-09,4.127016653792584,4.536093998840193
4,2018-10-27,5.35424868893541,4.536093998840193
5,2019-02-15,4.127016653792584,4.536093998840193
