,Time_Step,FI,Smooth_FI
0,2016-03-05,3.1010205144336442,4.603172630768155
1,2016-09-18,5.35424868893541,4.603172630768155
2,2017-03-15,5.35424868893541,4.603172630768155
3,2018-02-11,4.535898384862245,4.672387909196746
4,2018-08-09,4.127016653792584,4.672387909196746
5,2018-10-27,5.35424868893541,4.672387909196746
6,2019-02-15,5.35424868893541,5.35424868893541
