,Time_Step,FI,Smooth_FI
0,2016-09-18,5.35424868893541,5.35424868893541
1,2017-03-15,5.35424868893541,5.35424868893541
2,2018-02-11,5.35424868893541,5.35424868893541
3,2018-08-09,5.35424868893541,4.50411498505473
4,2018-10-27,5.35424868893541,4.50411498505473
5,2019-02-15,2.8038475772933684,4.50411498505473
