,Time_Step,FI,Smooth_FI
0,2016-03-05,8.0,6.709005551264195
1,2016-09-18,8.0,6.709005551264195
2,2017-03-15,4.127016653792584,6.709005551264195
3,2018-02-11,5.35424868893541,5.35424868893541
4,2018-08-09,5.35424868893541,5.35424868893541
5,2018-10-27,5.35424868893541,5.35424868893541
6,2019-02-15,5.35424868893541,5.35424868893541
