,Time_Step,FI,Smooth_FI
0,2016-09-18,4.000000000000001,4.9028324592902734
1,2017-03-15,5.35424868893541,4.9028324592902734
2,2018-02-11,5.35424868893541,4.9028324592902734
3,2018-08-09,4.000000000000001,4.9028324592902734
4,2018-10-27,5.35424868893541,4.9028324592902734
5,2019-02-15,5.35424868893541,4.9028324592902734
