2012-12-05,
2013-01-08,
2013-03-15,
2013-06-28,0.0077
2013-08-23,
2013-09-17,0.0088
2013-10-26,
2014-02-26,
2014-03-25,
2014-05-13,
2014-06-25,
2014-08-12,0.0033
2014-09-28,
2015-03-21,0.0082
2015-05-15,
2015-06-16,
2015-07-27,0.0076
2015-09-13,0.0197
2015-10-29,
2016-03-05,
2016-04-28,
2016-06-04,
2016-07-24,0.0714
2016-09-18,
2016-11-07,
2017-03-14,
2017-04-23,
2017-05-26,
2017-07-03,0.01177
2017-08-15,
2017-10-09,0.0069
2018-02-11,
2018-03-15,
2018-04-24,
2018-06-07,
2018-10-25,
2018-12-19,0.0047
2019-02-15,
