,Time_Step,FI,Smooth_FI
0,2014-02-26,4.535898384862245,4.22097167955161
1,2014-03-25,4.127016653792584,4.22097167955161
2,2014-05-13,4.000000000000001,4.22097167955161
3,2014-06-25,4.127016653792584,3.596643897482471
4,2014-08-12,4.127016653792584,3.596643897482471
5,2014-09-28,2.535898384862245,3.596643897482471
6,2015-03-21,2.5358983848622456,3.9633823579325522
7,2015-05-15,4.000000000000001,3.9633823579325522
8,2015-06-16,5.35424868893541,3.9633823579325522
9,2015-07-27,4.535898384862245,6.845299461620748
10,2015-09-13,8.0,6.845299461620748
11,2015-10-29,8.0,6.845299461620748
12,2016-03-05,4.535898384862245,4.535898384862245
13,2016-04-28,4.535898384862245,4.535898384862245
14,2016-06-04,4.535898384862245,4.535898384862245
15,2016-07-24,4.000000000000001,4.1786327949540825
16,2016-09-18,4.000000000000001,4.1786327949540825
17,2016-11-07,4.535898384862245,4.1786327949540825
18,2017-03-14,4.550510257216821,3.799175937377958
19,2017-04-23,3.4235087774585264,3.799175937377958
20,2017-05-26,3.4235087774585264,3.799175937377958
21,2017-07-03,2.17157287525381,3.4953383849902813
22,2017-08-15,3.763932022500211,3.4953383849902813
23,2017-10-09,4.550510257216821,3.4953383849902813
24,2018-02-11,4.349718460127116,3.019063240081057
25,2018-03-15,3.17157287525381,3.019063240081057
26,2018-04-24,1.5358983848622452,3.019063240081057
27,2018-06-07,2.8038475772933684,2.7145311798163276
28,2018-10-25,2.8038475772933684,2.7145311798163276
29,2018-12-19,2.535898384862245,2.7145311798163276
30,2019-02-15,3.4235087774585264,3.4235087774585264
