,Time_Step,FI,Smooth_FI
0,2016-09-18,4.535898384862245,4.630049024599219
1,2017-03-15,4.000000000000001,4.630049024599219
2,2018-02-11,5.35424868893541,4.630049024599219
3,2018-08-09,4.127016653792584,4.672387909196746
4,2018-10-27,5.35424868893541,4.672387909196746
5,2019-02-15,4.535898384862245,4.672387909196746
