,Time_Step,FI,Smooth_FI
0,2014-02-26,5.35424868893541,5.35424868893541
1,2014-03-25,5.35424868893541,5.35424868893541
2,2014-05-13,5.35424868893541,5.35424868893541
3,2014-06-25,5.35424868893541,4.8086818195533
4,2014-08-12,4.535898384862245,4.8086818195533
5,2014-09-28,4.535898384862245,4.8086818195533
6,2015-03-21,8.0,6.2361657926236065
7,2015-05-15,5.35424868893541,6.2361657926236065
8,2015-06-16,5.35424868893541,6.2361657926236065
9,2015-07-27,5.35424868893541,4.672387909196746
10,2015-09-13,4.535898384862245,4.672387909196746
11,2015-10-29,4.127016653792584,4.672387909196746
12,2016-03-05,8.0,6.2361657926236065
13,2016-04-28,5.35424868893541,6.2361657926236065
14,2016-06-04,5.35424868893541,6.2361657926236065
15,2016-07-24,5.35424868893541,5.963382357932552
16,2016-09-18,8.0,5.963382357932552
17,2016-11-07,4.535898384862245,5.963382357932552
18,2017-03-14,8.0,8.0
19,2017-04-23,8.0,8.0
20,2017-05-26,8.0,8.0
21,2017-07-03,5.35424868893541,5.086335878362547
22,2017-08-15,5.35424868893541,5.086335878362547
23,2017-10-09,4.550510257216821,5.086335878362547
24,2018-02-11,4.550510257216821,4.550510257216821
25,2018-03-15,4.550510257216821,4.550510257216821
26,2018-04-24,4.550510257216821,4.550510257216821
27,2018-06-07,4.550510257216821,5.9682529820507435
28,2018-10-25,5.35424868893541,5.9682529820507435
29,2018-12-19,8.0,5.9682529820507435
30,2019-02-15,5.35424868893541,5.35424868893541
